{
    "text": "chocolate",
    "parsed": [
        {
            "food": {
                "foodId": "food_beu5dozavhrqdpblca414a55qow3",
                "label": "semisweet chocolate",
                "nutrients": {
                    "ENERC_KCAL": 480.0,
                    "PROCNT": 4.2,
                    "FAT": 30.0,
                    "CHOCDF": 63.9,
                    "FIBTG": 5.9
                },
                "category": "Generic foods",
                "categoryLabel": "food",
                "image": "https://www.edamam.com/food-img/0a1/0a1b6f30cb99e1842cac6167f6f424d7.jpg",
                "servingsPerContainer": 23.448275862068964
            }
        }
    ],
    "hints": [
        {
            "food": {
                "foodId": "food_beu5dozavhrqdpblca414a55qow3",
                "label": "chocolate",
                "nutrients": {
                    "ENERC_KCAL": 480.0,
                    "PROCNT": 4.2,
                    "FAT": 30.0,
                    "CHOCDF": 63.9,
                    "FIBTG": 5.9
                },
                "category": "Generic foods",
                "categoryLabel": "food",
                "image": "https://www.edamam.com/food-img/0a1/0a1b6f30cb99e1842cac6167f6f424d7.jpg",
                "servingsPerContainer": 23.448275862068964
            },
            "measures": [
                {
                    "uri": "http://www.edamam.com/ontologies/edamam.owl#Measure_unit",
                    "label": "Whole",
                    "weight": 10.0
                },
                {
                    "uri": "http://www.edamam.com/ontologies/edamam.owl#Measure_bar",
                    "label": "Bar",
                    "weight": 41.0
                },
                {
                    "uri": "http://www.edamam.com/ontologies/edamam.owl#Measure_chunk",
                    "label": "Chunk",
                    "weight": 28.35
                },
                {
                    "uri": "http://www.edamam.com/ontologies/edamam.owl#Measure_square",
                    "label": "Square",
                    "weight": 28.35
                },
                {
                    "uri": "http://www.edamam.com/ontologies/edamam.owl#Measure_stick",
                    "label": "Stick",
                    "weight": 20.0
                },
                {
                    "uri": "http://www.edamam.com/ontologies/edamam.owl#Measure_serving",
                    "label": "Serving",
                    "weight": 14.5
                },
                {
                    "uri": "http://www.edamam.com/ontologies/edamam.owl#Measure_candy",
                    "label": "Candy",
                    "weight": 10.0
                },
                {
                    "uri": "http://www.edamam.com/ontologies/edamam.owl#Measure_chip",
                    "label": "Chip",
                    "weight": 1.0
                },
                {
                    "uri": "http://www.edamam.com/ontologies/edamam.owl#Measure_bag",
                    "label": "Bag",
                    "weight": 340.0
                },
                {
                    "uri": "http://www.edamam.com/ontologies/edamam.owl#Measure_box",
                    "label": "Box",
                    "weight": 340.0
                },
                {
                    "uri": "http://www.edamam.com/ontologies/edamam.owl#Measure_package",
                    "label": "Package",
                    "weight": 340.0
                },
                {
                    "uri": "http://www.edamam.com/ontologies/edamam.owl#Measure_gram",
                    "label": "Gram",
                    "weight": 1.0
                },
                {
                    "uri": "http://www.edamam.com/ontologies/edamam.owl#Measure_ounce",
                    "label": "Ounce",
                    "weight": 28.349523125
                },
                {
                    "uri": "http://www.edamam.com/ontologies/edamam.owl#Measure_pound",
                    "label": "Pound",
                    "weight": 453.59237
                },
                {
                    "uri": "http://www.edamam.com/ontologies/edamam.owl#Measure_kilogram",
                    "label": "Kilogram",
                    "weight": 1000.0
                },
                {
                    "uri": "http://www.edamam.com/ontologies/edamam.owl#Measure_teaspoon",
                    "label": "Teaspoon",
                    "weight": 3.79166666685898
                },
                {
                    "uri": "http://www.edamam.com/ontologies/edamam.owl#Measure_tablespoon",
                    "label": "Tablespoon",
                    "weight": 11.3749999998077
                },
                {
                    "uri": "http://www.edamam.com/ontologies/edamam.owl#Measure_handful",
                    "label": "Handful",
                    "weight": 22.75
                },
                {
                    "uri": "http://www.edamam.com/ontologies/edamam.owl#Measure_cup",
                    "label": "Cup",
                    "weight": 173.0,
                    "qualified": [
                        {
                            "qualifiers": [
                                {
                                    "uri": "http://www.edamam.com/ontologies/edamam.owl#Qualifier_large",
                                    "label": "large"
                                }
                            ],
                            "weight": 182.0
                        }
                    ]
                }
            ]
        },
        {
            "food": {
                "foodId": "food_beu5dozavhrqdpblca414a55qow3",
                "label": "chocolate egg",
                "nutrients": {
                    "ENERC_KCAL": 480.0,
                    "PROCNT": 4.2,
                    "FAT": 30.0,
                    "CHOCDF": 63.9,
                    "FIBTG": 5.9
                },
                "category": "Generic foods",
                "categoryLabel": "food",
                "image": "https://www.edamam.com/food-img/0a1/0a1b6f30cb99e1842cac6167f6f424d7.jpg",
                "servingsPerContainer": 23.448275862068964
            },
            "measures": [
                {
                    "uri": "http://www.edamam.com/ontologies/edamam.owl#Measure_unit",
                    "label": "Whole",
                    "weight": 10.0
                },
                {
                    "uri": "http://www.edamam.com/ontologies/edamam.owl#Measure_bar",
                    "label": "Bar",
                    "weight": 41.0
                },
                {
                    "uri": "http://www.edamam.com/ontologies/edamam.owl#Measure_chunk",
                    "label": "Chunk",
                    "weight": 28.35
                },
                {
                    "uri": "http://www.edamam.com/ontologies/edamam.owl#Measure_square",
                    "label": "Square",
                    "weight": 28.35
                },
                {
                    "uri": "http://www.edamam.com/ontologies/edamam.owl#Measure_stick",
                    "label": "Stick",
                    "weight": 20.0
                },
                {
                    "uri": "http://www.edamam.com/ontologies/edamam.owl#Measure_serving",
                    "label": "Serving",
                    "weight": 14.5
                },
                {
                    "uri": "http://www.edamam.com/ontologies/edamam.owl#Measure_candy",
                    "label": "Candy",
                    "weight": 10.0
                },
                {
                    "uri": "http://www.edamam.com/ontologies/edamam.owl#Measure_chip",
                    "label": "Chip",
                    "weight": 1.0
                },
                {
                    "uri": "http://www.edamam.com/ontologies/edamam.owl#Measure_bag",
                    "label": "Bag",
                    "weight": 340.0
                },
                {
                    "uri": "http://www.edamam.com/ontologies/edamam.owl#Measure_box",
                    "label": "Box",
                    "weight": 340.0
                },
                {
                    "uri": "http://www.edamam.com/ontologies/edamam.owl#Measure_package",
                    "label": "Package",
                    "weight": 340.0
                },
                {
                    "uri": "http://www.edamam.com/ontologies/edamam.owl#Measure_gram",
                    "label": "Gram",
                    "weight": 1.0
                },
                {
                    "uri": "http://www.edamam.com/ontologies/edamam.owl#Measure_ounce",
                    "label": "Ounce",
                    "weight": 28.349523125
                },
                {
                    "uri": "http://www.edamam.com/ontologies/edamam.owl#Measure_pound",
                    "label": "Pound",
                    "weight": 453.59237
                },
                {
                    "uri": "http://www.edamam.com/ontologies/edamam.owl#Measure_kilogram",
                    "label": "Kilogram",
                    "weight": 1000.0
                },
                {
                    "uri": "http://www.edamam.com/ontologies/edamam.owl#Measure_teaspoon",
                    "label": "Teaspoon",
                    "weight": 3.79166666685898
                },
                {
                    "uri": "http://www.edamam.com/ontologies/edamam.owl#Measure_tablespoon",
                    "label": "Tablespoon",
                    "weight": 11.3749999998077
                },
                {
                    "uri": "http://www.edamam.com/ontologies/edamam.owl#Measure_handful",
                    "label": "Handful",
                    "weight": 22.75
                },
                {
                    "uri": "http://www.edamam.com/ontologies/edamam.owl#Measure_cup",
                    "label": "Cup",
                    "weight": 173.0,
                    "qualified": [
                        {
                            "qualifiers": [
                                {
                                    "uri": "http://www.edamam.com/ontologies/edamam.owl#Qualifier_large",
                                    "label": "large"
                                }
                            ],
                            "weight": 182.0
                        }
                    ]
                }
            ]
        },
        {
            "food": {
                "foodId": "food_beu5dozavhrqdpblca414a55qow3",
                "label": "chocolate baton",
                "nutrients": {
                    "ENERC_KCAL": 480.0,
                    "PROCNT": 4.2,
                    "FAT": 30.0,
                    "CHOCDF": 63.9,
                    "FIBTG": 5.9
                },
                "category": "Generic foods",
                "categoryLabel": "food",
                "image": "https://www.edamam.com/food-img/0a1/0a1b6f30cb99e1842cac6167f6f424d7.jpg",
                "servingsPerContainer": 23.448275862068964
            },
            "measures": [
                {
                    "uri": "http://www.edamam.com/ontologies/edamam.owl#Measure_unit",
                    "label": "Whole",
                    "weight": 10.0
                },
                {
                    "uri": "http://www.edamam.com/ontologies/edamam.owl#Measure_bar",
                    "label": "Bar",
                    "weight": 41.0
                },
                {
                    "uri": "http://www.edamam.com/ontologies/edamam.owl#Measure_chunk",
                    "label": "Chunk",
                    "weight": 28.35
                },
                {
                    "uri": "http://www.edamam.com/ontologies/edamam.owl#Measure_square",
                    "label": "Square",
                    "weight": 28.35
                },
                {
                    "uri": "http://www.edamam.com/ontologies/edamam.owl#Measure_stick",
                    "label": "Stick",
                    "weight": 20.0
                },
                {
                    "uri": "http://www.edamam.com/ontologies/edamam.owl#Measure_serving",
                    "label": "Serving",
                    "weight": 14.5
                },
                {
                    "uri": "http://www.edamam.com/ontologies/edamam.owl#Measure_candy",
                    "label": "Candy",
                    "weight": 10.0
                },
                {
                    "uri": "http://www.edamam.com/ontologies/edamam.owl#Measure_chip",
                    "label": "Chip",
                    "weight": 1.0
                },
                {
                    "uri": "http://www.edamam.com/ontologies/edamam.owl#Measure_bag",
                    "label": "Bag",
                    "weight": 340.0
                },
                {
                    "uri": "http://www.edamam.com/ontologies/edamam.owl#Measure_box",
                    "label": "Box",
                    "weight": 340.0
                },
                {
                    "uri": "http://www.edamam.com/ontologies/edamam.owl#Measure_package",
                    "label": "Package",
                    "weight": 340.0
                },
                {
                    "uri": "http://www.edamam.com/ontologies/edamam.owl#Measure_gram",
                    "label": "Gram",
                    "weight": 1.0
                },
                {
                    "uri": "http://www.edamam.com/ontologies/edamam.owl#Measure_ounce",
                    "label": "Ounce",
                    "weight": 28.349523125
                },
                {
                    "uri": "http://www.edamam.com/ontologies/edamam.owl#Measure_pound",
                    "label": "Pound",
                    "weight": 453.59237
                },
                {
                    "uri": "http://www.edamam.com/ontologies/edamam.owl#Measure_kilogram",
                    "label": "Kilogram",
                    "weight": 1000.0
                },
                {
                    "uri": "http://www.edamam.com/ontologies/edamam.owl#Measure_teaspoon",
                    "label": "Teaspoon",
                    "weight": 3.79166666685898
                },
                {
                    "uri": "http://www.edamam.com/ontologies/edamam.owl#Measure_tablespoon",
                    "label": "Tablespoon",
                    "weight": 11.3749999998077
                },
                {
                    "uri": "http://www.edamam.com/ontologies/edamam.owl#Measure_handful",
                    "label": "Handful",
                    "weight": 22.75
                },
                {
                    "uri": "http://www.edamam.com/ontologies/edamam.owl#Measure_cup",
                    "label": "Cup",
                    "weight": 173.0,
                    "qualified": [
                        {
                            "qualifiers": [
                                {
                                    "uri": "http://www.edamam.com/ontologies/edamam.owl#Qualifier_large",
                                    "label": "large"
                                }
                            ],
                            "weight": 182.0
                        }
                    ]
                }
            ]
        },
        {
            "food": {
                "foodId": "food_bn4y8vfa6aj2ysaxcbeauab3enbu",
                "label": "CHOCOLATE CHOCOLATE CHOCOLATE, MILK CHOCOLATE NONPAREILS",
                "nutrients": {
                    "ENERC_KCAL": 550.0,
                    "PROCNT": 0.0,
                    "FAT": 32.5,
                    "CHOCDF": 60.0,
                    "FIBTG": 2.5
                },
                "brand": "Chocolate Chocolate Chocolate",
                "category": "Packaged foods",
                "categoryLabel": "food",
                "foodContentsLabel": "MILK CHOCOLATE (SUGAR; MILK; FAIR TRADE CERTIFIED COCOA BUTTER; FAIR TRADE CERTIFIED CHOCOLATE LIQUOR; SOY LECITHIN - AN EMULSIFIER; VANILLA); VEGETABLE OIL; SUGAR; CORN STARCH; CONFECTIONERS GLAZE",
                "servingSizes": [
                    {
                        "uri": "http://www.edamam.com/ontologies/edamam.owl#Measure_gram",
                        "label": "Gram",
                        "quantity": 40.0
                    },
                    {
                        "uri": "http://www.edamam.com/ontologies/edamam.owl#Measure_unit",
                        "label": "Whole",
                        "quantity": 3.0
                    }
                ]
            },
            "measures": [
                {
                    "uri": "http://www.edamam.com/ontologies/edamam.owl#Measure_serving",
                    "label": "Serving",
                    "weight": 40.0
                },
                {
                    "uri": "http://www.edamam.com/ontologies/edamam.owl#Measure_unit",
                    "label": "Whole",
                    "weight": 13.333333333333334
                },
                {
                    "uri": "http://www.edamam.com/ontologies/edamam.owl#Measure_gram",
                    "label": "Gram",
                    "weight": 1.0
                },
                {
                    "uri": "http://www.edamam.com/ontologies/edamam.owl#Measure_ounce",
                    "label": "Ounce",
                    "weight": 28.349523125
                },
                {
                    "uri": "http://www.edamam.com/ontologies/edamam.owl#Measure_pound",
                    "label": "Pound",
                    "weight": 453.59237
                },
                {
                    "uri": "http://www.edamam.com/ontologies/edamam.owl#Measure_kilogram",
                    "label": "Kilogram",
                    "weight": 1000.0
                }
            ]
        },
        {
            "food": {
                "foodId": "food_aw4y3onbc2w67qb080651bpqu5cb",
                "label": "Chocolate Chocolate Chocolate, Chocolate Bark, Peppermint",
                "nutrients": {
                    "ENERC_KCAL": 550.0,
                    "PROCNT": 7.5,
                    "FAT": 37.5,
                    "CHOCDF": 32.5,
                    "FIBTG": 5.0
                },
                "brand": "Chocolate Chocolate Chocolate",
                "category": "Packaged foods",
                "categoryLabel": "food",
                "foodContentsLabel": "All Natural White Liquor Chocolate ( Sugar; Fair Trade Certified Cocoa Butter; Whole Milk; Non - Fat Milk; Milk Fat; Soy Lecithin ( An Emulsifier ); Natural Vanilla Flavor ); All Natural Dark Chocolate ( Sugar; Fair Trade Certified Chocolate Liquor - Processed With Alkali; Fair Trade Certified Cocoa Butter; Milk Fat; Soy Lecithin - An Emulsifier; Vanilla ); Natural Peppermint Oil; Natural Color From Fruits And Vegetables; Gmo Free; Corn Syrup",
                "servingSizes": [
                    {
                        "uri": "http://www.edamam.com/ontologies/edamam.owl#Measure_gram",
                        "label": "Gram",
                        "quantity": 40.0
                    }
                ]
            },
            "measures": [
                {
                    "uri": "http://www.edamam.com/ontologies/edamam.owl#Measure_serving",
                    "label": "Serving",
                    "weight": 40.0
                },
                {
                    "uri": "http://www.edamam.com/ontologies/edamam.owl#Measure_gram",
                    "label": "Gram",
                    "weight": 1.0
                },
                {
                    "uri": "http://www.edamam.com/ontologies/edamam.owl#Measure_ounce",
                    "label": "Ounce",
                    "weight": 28.349523125
                },
                {
                    "uri": "http://www.edamam.com/ontologies/edamam.owl#Measure_pound",
                    "label": "Pound",
                    "weight": 453.59237
                },
                {
                    "uri": "http://www.edamam.com/ontologies/edamam.owl#Measure_kilogram",
                    "label": "Kilogram",
                    "weight": 1000.0
                }
            ]
        },
        {
            "food": {
                "foodId": "food_anpuzxca96q9odbgm6bh5anfo1tt",
                "label": "CHOCOLATE CHOCOLATE CHOCOLATE, DARK CHOCOLATE NOUPAREILS",
                "nutrients": {
                    "ENERC_KCAL": 500.0,
                    "PROCNT": 0.0,
                    "FAT": 27.5,
                    "CHOCDF": 62.5,
                    "FIBTG": 5.0
                },
                "brand": "Chocolate Chocolate Chocolate",
                "category": "Packaged foods",
                "categoryLabel": "food",
                "foodContentsLabel": "DARK CHOCOLATE (SUGAR; FAIR TRADE CERTIFIED CHOCOLATE LIQUOR PROCESSED WITH ALKALI; FAIR TRADE CERTIFIED COCOA BUTTER; MILK FAT; SOY LECITHIN AN EMULSIFIER; VANILLA); VEGETABLE OIL; SUGAR; CORN STARCH; CONFECTIONERS GLAZE; CARNAUBA WAX",
                "servingSizes": [
                    {
                        "uri": "http://www.edamam.com/ontologies/edamam.owl#Measure_gram",
                        "label": "Gram",
                        "quantity": 40.0
                    },
                    {
                        "uri": "http://www.edamam.com/ontologies/edamam.owl#Measure_unit",
                        "label": "Whole",
                        "quantity": 3.0
                    }
                ]
            },
            "measures": [
                {
                    "uri": "http://www.edamam.com/ontologies/edamam.owl#Measure_serving",
                    "label": "Serving",
                    "weight": 40.0
                },
                {
                    "uri": "http://www.edamam.com/ontologies/edamam.owl#Measure_unit",
                    "label": "Whole",
                    "weight": 13.333333333333334
                },
                {
                    "uri": "http://www.edamam.com/ontologies/edamam.owl#Measure_gram",
                    "label": "Gram",
                    "weight": 1.0
                },
                {
                    "uri": "http://www.edamam.com/ontologies/edamam.owl#Measure_ounce",
                    "label": "Ounce",
                    "weight": 28.349523125
                },
                {
                    "uri": "http://www.edamam.com/ontologies/edamam.owl#Measure_pound",
                    "label": "Pound",
                    "weight": 453.59237
                },
                {
                    "uri": "http://www.edamam.com/ontologies/edamam.owl#Measure_kilogram",
                    "label": "Kilogram",
                    "weight": 1000.0
                }
            ]
        },
        {
            "food": {
                "foodId": "food_avj86tfbfmsho4a79sd2rb4fwovc",
                "label": "Chocolate Chocolate Cookies",
                "nutrients": {
                    "ENERC_KCAL": 435.9389273121844,
                    "PROCNT": 5.025115572725115,
                    "FAT": 23.35853715993522,
                    "CHOCDF": 58.95106381691368,
                    "FIBTG": 4.350377962607372
                },
                "category": "Generic meals",
                "categoryLabel": "meal",
                "foodContentsLabel": "flour; cornstarch; sugar; cocoa; kosher salt; butter; glucose; egg; vanilla extract; chocolate; bread flour; baking powder; baking soda"
            },
            "measures": [
                {
                    "uri": "http://www.edamam.com/ontologies/edamam.owl#Measure_unit",
                    "label": "Whole",
                    "weight": 126.47493513209051
                },
                {
                    "uri": "http://www.edamam.com/ontologies/edamam.owl#Measure_serving",
                    "label": "Serving",
                    "weight": 126.47493513209051
                },
                {
                    "uri": "http://www.edamam.com/ontologies/edamam.owl#Measure_gram",
                    "label": "Gram",
                    "weight": 1.0
                },
                {
                    "uri": "http://www.edamam.com/ontologies/edamam.owl#Measure_ounce",
                    "label": "Ounce",
                    "weight": 28.349523125
                },
                {
                    "uri": "http://www.edamam.com/ontologies/edamam.owl#Measure_pound",
                    "label": "Pound",
                    "weight": 453.59237
                },
                {
                    "uri": "http://www.edamam.com/ontologies/edamam.owl#Measure_kilogram",
                    "label": "Kilogram",
                    "weight": 1000.0
                }
            ]
        },
        {
            "food": {
                "foodId": "food_ano4xoeaw0b05aaicx2l8bhtbnkb",
                "label": "CHOCOLATE CHOCOLATE CHIP MUFFINS, CHOCOLATE CHOCOLATE CHIP",
                "nutrients": {
                    "ENERC_KCAL": 364.0,
                    "PROCNT": 4.550000190734863,
                    "FAT": 15.149999618530273,
                    "CHOCDF": 54.54999923706055,
                    "FIBTG": 3.0
                },
                "category": "Packaged foods",
                "categoryLabel": "food",
                "foodContentsLabel": "WATER; SUGAR; BLEACHED WHEAT FLOUR; SOYBEAN OIL; CHOCOLATE CHIPS (SUGAR; CHOCOLATE LIQUOR; COCOA BUTTER; DEXTROSE; MILKFAT; SUNFLOWER LECITHIN; VANILLA FLAVOR; VANILLA EXTRACT); COCOA PROCESSED WITH ALKALI; WHEY PROTEIN CONCENTRATE (MILK); MODIFIED FOOD STARCH (CORN); SALT; WHEAT GLUTEN; WHEY (MILK); SODIUM ACID PYROPHOSPHATE; POTASSIUM BICARBONATE; CITRUS FIBER; GUAR GUM; NATURAL CHOCOLATE FLAVOR; XANTHAN GUM; RAPESEED OIL; MONO AND DIGLYCERIDES; SODIUM STEAROYL LACTYLATE.",
                "servingSizes": [
                    {
                        "uri": "http://www.edamam.com/ontologies/edamam.owl#Measure_unit",
                        "label": "Whole",
                        "quantity": 1.0
                    },
                    {
                        "uri": "http://www.edamam.com/ontologies/edamam.owl#Measure_gram",
                        "label": "Gram",
                        "quantity": 66.0
                    }
                ]
            },
            "measures": [
                {
                    "uri": "http://www.edamam.com/ontologies/edamam.owl#Measure_unit",
                    "label": "Whole",
                    "weight": 66.0
                },
                {
                    "uri": "http://www.edamam.com/ontologies/edamam.owl#Measure_serving",
                    "label": "Serving",
                    "weight": 66.0
                },
                {
                    "uri": "http://www.edamam.com/ontologies/edamam.owl#Measure_gram",
                    "label": "Gram",
                    "weight": 1.0
                },
                {
                    "uri": "http://www.edamam.com/ontologies/edamam.owl#Measure_ounce",
                    "label": "Ounce",
                    "weight": 28.349523125
                },
                {
                    "uri": "http://www.edamam.com/ontologies/edamam.owl#Measure_pound",
                    "label": "Pound",
                    "weight": 453.59237
                },
                {
                    "uri": "http://www.edamam.com/ontologies/edamam.owl#Measure_kilogram",
                    "label": "Kilogram",
                    "weight": 1000.0
                }
            ]
        },
        {
            "food": {
                "foodId": "food_brc129abpfihvabvs6gq8bda4qqb",
                "label": "CHOCOLATE CHOCOLATE CHOCOLATE, DARK CHOCOLATE CHRISTMAS NONPAREILS",
                "nutrients": {
                    "ENERC_KCAL": 500.0,
                    "PROCNT": 0.0,
                    "FAT": 27.5,
                    "CHOCDF": 62.5,
                    "FIBTG": 5.0
                },
                "brand": "Chocolate Chocolate Chocolate",
                "category": "Packaged foods",
                "categoryLabel": "food",
                "foodContentsLabel": "DARK CHOCOLATE (SUGAR; FAIR TRADE CERTIFIED CHOCOLATE LIQUOR- PROCESSED WITH ALKALI; FAIR TRADE CERTIFIED COCOA BUTTER; MILK FAT; SOY LECITHIN- AN EMULSIFIER; VANILLA); VEGETABLE OIL; SUGAR; CORN STARCH; CONFECTIONERS GLAZE; RED 3; RED 40; CARNAUBA WAX; YELLOW 6; BLUE 2",
                "servingSizes": [
                    {
                        "uri": "http://www.edamam.com/ontologies/edamam.owl#Measure_unit",
                        "label": "Whole",
                        "quantity": 3.0
                    },
                    {
                        "uri": "http://www.edamam.com/ontologies/edamam.owl#Measure_gram",
                        "label": "Gram",
                        "quantity": 40.0
                    }
                ]
            },
            "measures": [
                {
                    "uri": "http://www.edamam.com/ontologies/edamam.owl#Measure_serving",
                    "label": "Serving",
                    "weight": 40.0
                },
                {
                    "uri": "http://www.edamam.com/ontologies/edamam.owl#Measure_unit",
                    "label": "Whole",
                    "weight": 13.333333333333334
                },
                {
                    "uri": "http://www.edamam.com/ontologies/edamam.owl#Measure_gram",
                    "label": "Gram",
                    "weight": 1.0
                },
                {
                    "uri": "http://www.edamam.com/ontologies/edamam.owl#Measure_ounce",
                    "label": "Ounce",
                    "weight": 28.349523125
                },
                {
                    "uri": "http://www.edamam.com/ontologies/edamam.owl#Measure_pound",
                    "label": "Pound",
                    "weight": 453.59237
                },
                {
                    "uri": "http://www.edamam.com/ontologies/edamam.owl#Measure_kilogram",
                    "label": "Kilogram",
                    "weight": 1000.0
                }
            ]
        },
        {
            "food": {
                "foodId": "food_bylcl9lbvsee02akd3cusbmnnz3x",
                "label": "CHOCOLATE CHOCOLATE CHOCOLATE, WHITE CHOCOLATE PEPPERMINT WAFERS",
                "nutrients": {
                    "ENERC_KCAL": 550.0,
                    "PROCNT": 7.5,
                    "FAT": 32.5,
                    "CHOCDF": 25.0,
                    "FIBTG": 2.5
                },
                "brand": "Chocolate Chocolate Chocolate",
                "category": "Packaged foods",
                "categoryLabel": "food",
                "foodContentsLabel": "ALL NATURAL WHITE CHOCOLATE (SUGAR; FAIR TRADE CERTIFIED COCOA BUTTER; WHOLE MILK; NON-FAT MILK; MILK FAT; SOY LECITHIN - AN EMULSIFIER; NATURAL VANILLA FLAVOR); NATURAL PEPPERMINT OIL; NATURAL COLORS FROM FRUITS AND VEGETABLES; CORN SYRUP",
                "servingSizes": [
                    {
                        "uri": "http://www.edamam.com/ontologies/edamam.owl#Measure_gram",
                        "label": "Gram",
                        "quantity": 40.0
                    }
                ]
            },
            "measures": [
                {
                    "uri": "http://www.edamam.com/ontologies/edamam.owl#Measure_serving",
                    "label": "Serving",
                    "weight": 40.0
                },
                {
                    "uri": "http://www.edamam.com/ontologies/edamam.owl#Measure_gram",
                    "label": "Gram",
                    "weight": 1.0
                },
                {
                    "uri": "http://www.edamam.com/ontologies/edamam.owl#Measure_ounce",
                    "label": "Ounce",
                    "weight": 28.349523125
                },
                {
                    "uri": "http://www.edamam.com/ontologies/edamam.owl#Measure_pound",
                    "label": "Pound",
                    "weight": 453.59237
                },
                {
                    "uri": "http://www.edamam.com/ontologies/edamam.owl#Measure_kilogram",
                    "label": "Kilogram",
                    "weight": 1000.0
                }
            ]
        },
        {
            "food": {
                "foodId": "food_a0f16pobhwhr2xaumslbubpjuya5",
                "label": "CHOCOLATE CHOCOLATE CHIP WAFFLES, CHOCOLATE CHOCOLATE CHIP",
                "nutrients": {
                    "ENERC_KCAL": 214.0,
                    "PROCNT": 4.289999961853027,
                    "FAT": 5.710000038146973,
                    "CHOCDF": 37.13999938964844,
                    "FIBTG": 0.0
                },
                "category": "Packaged foods",
                "categoryLabel": "food",
                "foodContentsLabel": "ENRICHED WHEAT FLOUR (WHEAT FLOUR; MALTED BARLEY FLOUR; NIACIN; REDUCED IRON; THIAMIN MONONITRATE; RIBOFLAVIN; FOLIC ACID); WATER; SUGAR; NONFAT MILK; SEMISWEET CHOCOLATE CHIPS (SUGAR; CHOCOLATE LIQUOR; COCOA BUTTER; DEXTROSE; SOY LECITHIN [EMULSIFIER]; VANILLIN [ARTIFICIAL FLAVOR]); SOYBEAN OIL; COCOA; CONTAINS 2% OR LESS OF THE FOLLOWING: WHOLE EGGS; SOY LECITHIN; SODIUM ACID PYROPHOSPHATE; SODIUM BICARBONATE; SALT; NATURAL AND ARTIFICIAL FLAVOR; NATURAL VANILLA FLAVOR; MONOCALCIUM PHOSPHATE; CALCIUM PHOSPHATE; CALCIUM CARBONATE; VITAMIN A PALMITATE; NIACIN; REDUCED IRON; PYRIDOXINE HYDROCHLORIDE; RIBOFLAVIN; THIAMIN MONONITRATE; CYANOCOBALAMIN.",
                "servingSizes": [
                    {
                        "uri": "http://www.edamam.com/ontologies/edamam.owl#Measure_gram",
                        "label": "Gram",
                        "quantity": 70.0
                    },
                    {
                        "uri": "http://www.edamam.com/ontologies/edamam.owl#Measure_unit",
                        "label": "Whole",
                        "quantity": 2.0
                    }
                ]
            },
            "measures": [
                {
                    "uri": "http://www.edamam.com/ontologies/edamam.owl#Measure_unit",
                    "label": "Whole",
                    "weight": 35.0
                },
                {
                    "uri": "http://www.edamam.com/ontologies/edamam.owl#Measure_serving",
                    "label": "Serving",
                    "weight": 70.0
                },
                {
                    "uri": "http://www.edamam.com/ontologies/edamam.owl#Measure_gram",
                    "label": "Gram",
                    "weight": 1.0
                },
                {
                    "uri": "http://www.edamam.com/ontologies/edamam.owl#Measure_ounce",
                    "label": "Ounce",
                    "weight": 28.349523125
                },
                {
                    "uri": "http://www.edamam.com/ontologies/edamam.owl#Measure_pound",
                    "label": "Pound",
                    "weight": 453.59237
                },
                {
                    "uri": "http://www.edamam.com/ontologies/edamam.owl#Measure_kilogram",
                    "label": "Kilogram",
                    "weight": 1000.0
                }
            ]
        },
        {
            "food": {
                "foodId": "food_a6de568bupijuqa0l15nybm0z90v",
                "label": "Chocolate Chocolate cake",
                "nutrients": {
                    "ENERC_KCAL": 317.71040102360354,
                    "PROCNT": 3.1181597360180477,
                    "FAT": 11.773286777332569,
                    "CHOCDF": 54.00178450452878,
                    "FIBTG": 2.4891767399575744
                },
                "category": "Generic meals",
                "categoryLabel": "meal",
                "foodContentsLabel": "sugar; flour; cocoa; baking powder; baking soda; salt; eggs; milk; oil; vanilla; water; butter; powdered sugar"
            },
            "measures": [
                {
                    "uri": "http://www.edamam.com/ontologies/edamam.owl#Measure_unit",
                    "label": "Whole",
                    "weight": 618.7291666666666
                },
                {
                    "uri": "http://www.edamam.com/ontologies/edamam.owl#Measure_serving",
                    "label": "Serving",
                    "weight": 618.7291666666666
                },
                {
                    "uri": "http://www.edamam.com/ontologies/edamam.owl#Measure_gram",
                    "label": "Gram",
                    "weight": 1.0
                },
                {
                    "uri": "http://www.edamam.com/ontologies/edamam.owl#Measure_ounce",
                    "label": "Ounce",
                    "weight": 28.349523125
                },
                {
                    "uri": "http://www.edamam.com/ontologies/edamam.owl#Measure_pound",
                    "label": "Pound",
                    "weight": 453.59237
                },
                {
                    "uri": "http://www.edamam.com/ontologies/edamam.owl#Measure_kilogram",
                    "label": "Kilogram",
                    "weight": 1000.0
                }
            ]
        },
        {
            "food": {
                "foodId": "food_bs31xpybxd89d5a5ewj7havdz4k9",
                "label": "Dilettante Chocolates Chocolate",
                "nutrients": {
                    "ENERC_KCAL": 500.0,
                    "PROCNT": 7.5,
                    "FAT": 32.5,
                    "CHOCDF": 60.0,
                    "FIBTG": 2.5
                },
                "brand": "Dilettante Chocolates",
                "category": "Packaged foods",
                "categoryLabel": "food",
                "foodContentsLabel": "MILK CHOCOLATE(SUGAR; CHOCOLATE LIQUOR; MILK; COCOA BUTTER; SOY LECITHIN(AN EMULSIFIER); PURE VANILLA); WHITE CHOCOLATE(SUGAR; COCOA BUTTER; MILK; SOY LECITHIN(AN EMULSIFIER); PURE VANILLA); DARK CHOCOLATE()CHOCOLATE LIQUOR; SUGAR; COCOA BUTTER; BUTTER OIL; SOY LECITHIN(AN EMULSIFIER); PURE VANILLA)",
                "image": "https://www.edamam.com/food-img/a4a/a4a52a6d8cc904ded6f78142886a924c.png",
                "servingsPerContainer": 2.5
            },
            "measures": [
                {
                    "uri": "http://www.edamam.com/ontologies/edamam.owl#Measure_serving",
                    "label": "Serving",
                    "weight": 40.0
                },
                {
                    "uri": "http://www.edamam.com/ontologies/edamam.owl#Measure_package",
                    "label": "Package",
                    "weight": 100.0
                },
                {
                    "uri": "http://www.edamam.com/ontologies/edamam.owl#Measure_gram",
                    "label": "Gram",
                    "weight": 1.0
                },
                {
                    "uri": "http://www.edamam.com/ontologies/edamam.owl#Measure_ounce",
                    "label": "Ounce",
                    "weight": 28.349523125
                },
                {
                    "uri": "http://www.edamam.com/ontologies/edamam.owl#Measure_pound",
                    "label": "Pound",
                    "weight": 453.59237
                },
                {
                    "uri": "http://www.edamam.com/ontologies/edamam.owl#Measure_kilogram",
                    "label": "Kilogram",
                    "weight": 1000.0
                }
            ]
        },
        {
            "food": {
                "foodId": "food_bg5o4mzb5h42cha5ndbghac6mbsz",
                "label": "CHOCOLATE STARS, CHOCOLATE",
                "nutrients": {
                    "ENERC_KCAL": 500.0,
                    "PROCNT": 5.0,
                    "FAT": 27.5,
                    "CHOCDF": 67.5,
                    "FIBTG": 2.5
                },
                "category": "Packaged foods",
                "categoryLabel": "food",
                "foodContentsLabel": "MILK CHOCOLATE (SUGAR; COCOA BUTTER; WHOLE MILK; CHOCOLATE LIQUOR; SOY LECITHIN [AN EMULSIFIER]; AND VANILLIN [AN ARTIFICIAL FLAVORING]).",
                "servingSizes": [
                    {
                        "uri": "http://www.edamam.com/ontologies/edamam.owl#Measure_gram",
                        "label": "Gram",
                        "quantity": 40.0
                    },
                    {
                        "uri": "http://www.edamam.com/ontologies/edamam.owl#Measure_unit",
                        "label": "Whole",
                        "quantity": 12.0
                    }
                ]
            },
            "measures": [
                {
                    "uri": "http://www.edamam.com/ontologies/edamam.owl#Measure_unit",
                    "label": "Whole",
                    "weight": 3.3333333333333335
                },
                {
                    "uri": "http://www.edamam.com/ontologies/edamam.owl#Measure_serving",
                    "label": "Serving",
                    "weight": 40.0
                },
                {
                    "uri": "http://www.edamam.com/ontologies/edamam.owl#Measure_gram",
                    "label": "Gram",
                    "weight": 1.0
                },
                {
                    "uri": "http://www.edamam.com/ontologies/edamam.owl#Measure_ounce",
                    "label": "Ounce",
                    "weight": 28.349523125
                },
                {
                    "uri": "http://www.edamam.com/ontologies/edamam.owl#Measure_pound",
                    "label": "Pound",
                    "weight": 453.59237
                },
                {
                    "uri": "http://www.edamam.com/ontologies/edamam.owl#Measure_kilogram",
                    "label": "Kilogram",
                    "weight": 1000.0
                }
            ]
        },
        {
            "food": {
                "foodId": "food_aymu7raanbk3xbbxza72qbyg3ks5",
                "label": "CHOCOLATE OATS, CHOCOLATE",
                "nutrients": {
                    "ENERC_KCAL": 403.0,
                    "PROCNT": 19.350000381469727,
                    "FAT": 14.520000457763672,
                    "CHOCDF": 54.84000015258789,
                    "FIBTG": 9.699999809265137
                },
                "category": "Packaged foods",
                "categoryLabel": "food",
                "foodContentsLabel": "OATS; ALMONDS; DATES; EGG WHITES; CHOCOLATE; NATURAL FLAVORS; SEA SALT.",
                "servingSizes": [
                    {
                        "uri": "http://www.edamam.com/ontologies/edamam.owl#Measure_gram",
                        "label": "Gram",
                        "quantity": 62.0
                    },
                    {
                        "uri": "http://www.edamam.com/ontologies/edamam.owl#Measure_cup",
                        "label": "Cup",
                        "quantity": 1.0
                    }
                ]
            },
            "measures": [
                {
                    "uri": "http://www.edamam.com/ontologies/edamam.owl#Measure_serving",
                    "label": "Serving",
                    "weight": 62.0
                },
                {
                    "uri": "http://www.edamam.com/ontologies/edamam.owl#Measure_gram",
                    "label": "Gram",
                    "weight": 1.0
                },
                {
                    "uri": "http://www.edamam.com/ontologies/edamam.owl#Measure_ounce",
                    "label": "Ounce",
                    "weight": 28.349523125
                },
                {
                    "uri": "http://www.edamam.com/ontologies/edamam.owl#Measure_pound",
                    "label": "Pound",
                    "weight": 453.59237
                },
                {
                    "uri": "http://www.edamam.com/ontologies/edamam.owl#Measure_kilogram",
                    "label": "Kilogram",
                    "weight": 1000.0
                },
                {
                    "uri": "http://www.edamam.com/ontologies/edamam.owl#Measure_cup",
                    "label": "Cup",
                    "weight": 62.0
                }
            ]
        },
        {
            "food": {
                "foodId": "food_ajsx91db3grfc6bsrzpivbnm428w",
                "label": "ELMER CHOCOLATE, CHOCOLATE",
                "nutrients": {
                    "ENERC_KCAL": 441.0,
                    "PROCNT": 2.940000057220459,
                    "FAT": 17.649999618530273,
                    "CHOCDF": 73.52999877929688,
                    "FIBTG": 2.9000000953674316
                },
                "brand": "Elmer Chocolate",
                "category": "Packaged foods",
                "categoryLabel": "food",
                "foodContentsLabel": "SUGAR; MILK CHOCOLATE (SUGAR; COCOA BUTTER; MILK; CHOCOLATE; SOY LECITHIN; AN EMULSIFIER; SALT; ARTIFICIAL FLAVOR); DARK SWEET CHOCOLATE (SUGAR; CHOCOLATE; COCOA BUTTER; NATURAL & ARTIFICIAL FLAVORS; SOY LECITHIN; AN EMULSIFIER) CORN SYRUP; PALM OIL; HIGH FRUCTOSE CORN SYRUP; CONTAINS 2% OR LESS OF: MILK; SKIM MILK; WHEY; COCOA; NATURAL & ARTIFICIAL FLAVORS; FOOD STARCH-MODIFIED; INVERTASE; CITRIC ACID; SALT; EGG; WHITES; GELATIN; PARTIALLY HYDROGENATED PALM KERNEL & COTTONSEED OILS; SOY LECITHIN (AN EMULSIFIER) RED 40; YELLOW 6; POTASSIUM SORBATE (A PRESERVATIVE); HYDROLYZED SOY PROTEIN; SODIUM HEXAMETAPHOSPHATE.",
                "servingSizes": [
                    {
                        "uri": "http://www.edamam.com/ontologies/edamam.owl#Measure_unit",
                        "label": "Whole",
                        "quantity": 3.0
                    },
                    {
                        "uri": "http://www.edamam.com/ontologies/edamam.owl#Measure_gram",
                        "label": "Gram",
                        "quantity": 34.0
                    }
                ]
            },
            "measures": [
                {
                    "uri": "http://www.edamam.com/ontologies/edamam.owl#Measure_serving",
                    "label": "Serving",
                    "weight": 34.0
                },
                {
                    "uri": "http://www.edamam.com/ontologies/edamam.owl#Measure_unit",
                    "label": "Whole",
                    "weight": 11.333333333333334
                },
                {
                    "uri": "http://www.edamam.com/ontologies/edamam.owl#Measure_gram",
                    "label": "Gram",
                    "weight": 1.0
                },
                {
                    "uri": "http://www.edamam.com/ontologies/edamam.owl#Measure_ounce",
                    "label": "Ounce",
                    "weight": 28.349523125
                },
                {
                    "uri": "http://www.edamam.com/ontologies/edamam.owl#Measure_pound",
                    "label": "Pound",
                    "weight": 453.59237
                },
                {
                    "uri": "http://www.edamam.com/ontologies/edamam.owl#Measure_kilogram",
                    "label": "Kilogram",
                    "weight": 1000.0
                }
            ]
        },
        {
            "food": {
                "foodId": "food_bk5eehpb0cq75xb3jfxl7b1pr5ud",
                "label": "ELMER CHOCOLATE, CHOCOLATE",
                "nutrients": {
                    "ENERC_KCAL": 441.0,
                    "PROCNT": 2.940000057220459,
                    "FAT": 14.710000038146973,
                    "CHOCDF": 73.52999877929688,
                    "FIBTG": 2.9000000953674316
                },
                "brand": "Elmer Chocolate",
                "category": "Packaged foods",
                "categoryLabel": "food",
                "foodContentsLabel": "SUGAR; MILK CHOCOLATE (SUGAR; COCOA BUTTER; MILK; CHOCOLATE; SOY LECITHIN; AN EMULSIFIER; SALT; ARTIFICIAL FLAVOR); DARK SWEET CHOCOLATE (SUGAR; CHOCOLATE; COCOA BUTTER; NATURAL & ARTIFICIAL FLAVORS; SOY LECITHIN; AN EMULSIFIER); CORN SYRUP; PALM OIL; HIGH FRUCTOSE CORN SYRUP. CONTAINS 2% OR LESS OF: MILK; SKIM MILK; WHEY; COCOA; NATURAL & ARTIFICIAL FLAVORS; FOOD STARCH-MODIFIED; INVERTASE; CITRIC ACID; SALT; EGG WHITES; GELATIN; PARTIALLY HYDROGENATED PALM KERNEL & COTTONSEED OILS; SOY LECITHIN (AN EMULSIFIER); RED 40; YELLOW 6; POTASSIUM SORBATE (A PRESERVATIVE); HYDROLYZED SOY PROTEIN; SODIUM HEXAMETAPHOSPHATE",
                "servingSizes": [
                    {
                        "uri": "http://www.edamam.com/ontologies/edamam.owl#Measure_gram",
                        "label": "Gram",
                        "quantity": 34.0
                    },
                    {
                        "uri": "http://www.edamam.com/ontologies/edamam.owl#Measure_unit",
                        "label": "Whole",
                        "quantity": 3.0
                    }
                ]
            },
            "measures": [
                {
                    "uri": "http://www.edamam.com/ontologies/edamam.owl#Measure_serving",
                    "label": "Serving",
                    "weight": 34.0
                },
                {
                    "uri": "http://www.edamam.com/ontologies/edamam.owl#Measure_unit",
                    "label": "Whole",
                    "weight": 11.333333333333334
                },
                {
                    "uri": "http://www.edamam.com/ontologies/edamam.owl#Measure_gram",
                    "label": "Gram",
                    "weight": 1.0
                },
                {
                    "uri": "http://www.edamam.com/ontologies/edamam.owl#Measure_ounce",
                    "label": "Ounce",
                    "weight": 28.349523125
                },
                {
                    "uri": "http://www.edamam.com/ontologies/edamam.owl#Measure_pound",
                    "label": "Pound",
                    "weight": 453.59237
                },
                {
                    "uri": "http://www.edamam.com/ontologies/edamam.owl#Measure_kilogram",
                    "label": "Kilogram",
                    "weight": 1000.0
                }
            ]
        },
        {
            "food": {
                "foodId": "food_auh09lfad2yilrba4b4ghadd6p7p",
                "label": "ELMER CHOCOLATE, CHOCOLATE",
                "nutrients": {
                    "ENERC_KCAL": 441.0,
                    "PROCNT": 2.940000057220459,
                    "FAT": 14.710000038146973,
                    "CHOCDF": 73.52999877929688,
                    "FIBTG": 2.9000000953674316
                },
                "brand": "Elmer Chocolate",
                "category": "Packaged foods",
                "categoryLabel": "food",
                "foodContentsLabel": "SUGAR; MILK CHOCOLATE (SUGAR; COCOA BUTTER; MILK; CHOCOLATE; SOY LECITHIN; AN EMULSIFIER; SALT; ARTIFICIAL FLAVOR); DARK SWEET CHOCOLATE (SUGAR; CHOCOLATE; COCOA BUTTER; NATURAL & ARTIFICIAL FLAVORS; SOY LECITHIN; AN EMULSIFIER); CORN SYRUP; PALM OIL; HIGH FRUCTOSE CORN SYRUP. CONTAINS 2% OR LESS OF: MILK; SKIM MILK; WHEY; COCOA; NATURAL & ARTIFICIAL FLAVORS; FOOD STARCH-MODIFIED; INVERTASE; CITRIC ACID; SALT; EGG WHITES; GELATIN; PARTIALLY HYDROGENATED PALM KERNEL & COTTONSEED OILS; SOY LECITHIN (AN EMULSIFIER); RED 40; YELLOW 6; POTASSIUM SORBATE (A PRESERVATIVE); HYDROLYZED SOY PROTEIN; SODIUM HEXAMETAPHOSPHATE.",
                "servingSizes": [
                    {
                        "uri": "http://www.edamam.com/ontologies/edamam.owl#Measure_gram",
                        "label": "Gram",
                        "quantity": 34.0
                    },
                    {
                        "uri": "http://www.edamam.com/ontologies/edamam.owl#Measure_unit",
                        "label": "Whole",
                        "quantity": 3.0
                    }
                ]
            },
            "measures": [
                {
                    "uri": "http://www.edamam.com/ontologies/edamam.owl#Measure_serving",
                    "label": "Serving",
                    "weight": 34.0
                },
                {
                    "uri": "http://www.edamam.com/ontologies/edamam.owl#Measure_unit",
                    "label": "Whole",
                    "weight": 11.333333333333334
                },
                {
                    "uri": "http://www.edamam.com/ontologies/edamam.owl#Measure_gram",
                    "label": "Gram",
                    "weight": 1.0
                },
                {
                    "uri": "http://www.edamam.com/ontologies/edamam.owl#Measure_ounce",
                    "label": "Ounce",
                    "weight": 28.349523125
                },
                {
                    "uri": "http://www.edamam.com/ontologies/edamam.owl#Measure_pound",
                    "label": "Pound",
                    "weight": 453.59237
                },
                {
                    "uri": "http://www.edamam.com/ontologies/edamam.owl#Measure_kilogram",
                    "label": "Kilogram",
                    "weight": 1000.0
                }
            ]
        },
        {
            "food": {
                "foodId": "food_bnpolgsajjmuveba04gc4a54a7k5",
                "label": "Chocolate Chocolate Chip Cake",
                "nutrients": {
                    "ENERC_KCAL": 334.5371293006123,
                    "PROCNT": 3.927069988134076,
                    "FAT": 17.493096085483387,
                    "CHOCDF": 45.123368920481404,
                    "FIBTG": 1.5485646500579207
                },
                "category": "Generic meals",
                "categoryLabel": "meal",
                "foodContentsLabel": "Chocolate fudge cake mix; pudding mix; eggs; sour cream; water; vegetable oil; semi-sweet chocolate; powdered sugar; milk"
            },
            "measures": [
                {
                    "uri": "http://www.edamam.com/ontologies/edamam.owl#Measure_unit",
                    "label": "Whole",
                    "weight": 526.8750000004734
                },
                {
                    "uri": "http://www.edamam.com/ontologies/edamam.owl#Measure_serving",
                    "label": "Serving",
                    "weight": 526.8750000004734
                },
                {
                    "uri": "http://www.edamam.com/ontologies/edamam.owl#Measure_gram",
                    "label": "Gram",
                    "weight": 1.0
                },
                {
                    "uri": "http://www.edamam.com/ontologies/edamam.owl#Measure_ounce",
                    "label": "Ounce",
                    "weight": 28.349523125
                },
                {
                    "uri": "http://www.edamam.com/ontologies/edamam.owl#Measure_pound",
                    "label": "Pound",
                    "weight": 453.59237
                },
                {
                    "uri": "http://www.edamam.com/ontologies/edamam.owl#Measure_kilogram",
                    "label": "Kilogram",
                    "weight": 1000.0
                }
            ]
        },
        {
            "food": {
                "foodId": "food_blgweswbomfi6rbv6asqca8ezhfv",
                "label": "CHOCOLATE DONUT, CHOCOLATE",
                "nutrients": {
                    "ENERC_KCAL": 368.0,
                    "PROCNT": 14.039999961853027,
                    "FAT": 12.279999732971191,
                    "CHOCDF": 56.13999938964844,
                    "FIBTG": 8.800000190734863
                },
                "category": "Packaged foods",
                "categoryLabel": "food",
                "foodContentsLabel": "ENRICHED WHEAT FLOUR (WHEAT FLOUR; NIACIN; REDUCED IRON; THIAMINE MONONITRATE; RIBOFLAVIN; FOLIC ACID); PROTEIN BLEND (VITAL WHEAT GLUTEN; PEA PROTEIN; RICE PROTEIN); CHICORY ROOT FIBER; SEMI-SWEET CHOCOLATE CHIPS (UNSWEETENED CHOCOLATE; SUGAR; COCOA BUTT",
                "servingSizes": [
                    {
                        "uri": "http://www.edamam.com/ontologies/edamam.owl#Measure_gram",
                        "label": "Gram",
                        "quantity": 57.0
                    },
                    {
                        "uri": "http://www.edamam.com/ontologies/edamam.owl#Measure_cookie",
                        "label": "Cookie",
                        "quantity": 0.5
                    }
                ]
            },
            "measures": [
                {
                    "uri": "http://www.edamam.com/ontologies/edamam.owl#Measure_cookie",
                    "label": "Cookie",
                    "weight": 114.0
                },
                {
                    "uri": "http://www.edamam.com/ontologies/edamam.owl#Measure_serving",
                    "label": "Serving",
                    "weight": 57.0
                },
                {
                    "uri": "http://www.edamam.com/ontologies/edamam.owl#Measure_gram",
                    "label": "Gram",
                    "weight": 1.0
                },
                {
                    "uri": "http://www.edamam.com/ontologies/edamam.owl#Measure_ounce",
                    "label": "Ounce",
                    "weight": 28.349523125
                },
                {
                    "uri": "http://www.edamam.com/ontologies/edamam.owl#Measure_pound",
                    "label": "Pound",
                    "weight": 453.59237
                },
                {
                    "uri": "http://www.edamam.com/ontologies/edamam.owl#Measure_kilogram",
                    "label": "Kilogram",
                    "weight": 1000.0
                }
            ]
        },
        {
            "food": {
                "foodId": "food_b3oansua77njdza7q7er9b8x6x0d",
                "label": "MILK CHOCOLATE, CHOCOLATE",
                "nutrients": {
                    "ENERC_KCAL": 580.0,
                    "PROCNT": 6.0,
                    "FAT": 36.0,
                    "CHOCDF": 52.0,
                    "FIBTG": 2.0
                },
                "brand": "Lindt",
                "category": "Packaged foods",
                "categoryLabel": "food",
                "foodContentsLabel": "SUGAR; COCOA BUTTER; MILK; CHOCOLATE; LACTOSE; SKIM MILK; SOY LECITHIN (EMULSIFIER); BARLEY MALT POWDER; ARTIFICIAL FLAVOR.",
                "image": "https://www.edamam.com/food-img/91c/91c9aa3ae7b1b5d802358207cc289e8b.jpg",
                "servingSizes": [
                    {
                        "uri": "http://www.edamam.com/ontologies/edamam.owl#Measure_unit",
                        "label": "Whole",
                        "quantity": 5.0
                    },
                    {
                        "uri": "http://www.edamam.com/ontologies/edamam.owl#Measure_gram",
                        "label": "Gram",
                        "quantity": 50.0
                    }
                ]
            },
            "measures": [
                {
                    "uri": "http://www.edamam.com/ontologies/edamam.owl#Measure_serving",
                    "label": "Serving",
                    "weight": 50.0
                },
                {
                    "uri": "http://www.edamam.com/ontologies/edamam.owl#Measure_unit",
                    "label": "Whole",
                    "weight": 10.0
                },
                {
                    "uri": "http://www.edamam.com/ontologies/edamam.owl#Measure_gram",
                    "label": "Gram",
                    "weight": 1.0
                },
                {
                    "uri": "http://www.edamam.com/ontologies/edamam.owl#Measure_ounce",
                    "label": "Ounce",
                    "weight": 28.349523125
                },
                {
                    "uri": "http://www.edamam.com/ontologies/edamam.owl#Measure_pound",
                    "label": "Pound",
                    "weight": 453.59237
                },
                {
                    "uri": "http://www.edamam.com/ontologies/edamam.owl#Measure_kilogram",
                    "label": "Kilogram",
                    "weight": 1000.0
                }
            ]
        },
        {
            "food": {
                "foodId": "food_ade3rava5a1cttafwt4mca781alr",
                "label": "Chocolate Chocolate Chip Cookies",
                "nutrients": {
                    "ENERC_KCAL": 434.5900004533002,
                    "PROCNT": 4.854195762278654,
                    "FAT": 21.991246450828736,
                    "CHOCDF": 59.27625333006368,
                    "FIBTG": 2.5616487127329215
                },
                "category": "Generic meals",
                "categoryLabel": "meal",
                "foodContentsLabel": "all-purpose flour; baking powder; salt; baking soda; ground cloves; unsalted butter; bittersweet chocolate; eggs; egg yolk; light brown sugar; vanilla extract; chocolate chips"
            },
            "measures": [
                {
                    "uri": "http://www.edamam.com/ontologies/edamam.owl#Measure_unit",
                    "label": "Whole",
                    "weight": 47.28401734375
                },
                {
                    "uri": "http://www.edamam.com/ontologies/edamam.owl#Measure_serving",
                    "label": "Serving",
                    "weight": 47.28401734375
                },
                {
                    "uri": "http://www.edamam.com/ontologies/edamam.owl#Measure_gram",
                    "label": "Gram",
                    "weight": 1.0
                },
                {
                    "uri": "http://www.edamam.com/ontologies/edamam.owl#Measure_ounce",
                    "label": "Ounce",
                    "weight": 28.349523125
                },
                {
                    "uri": "http://www.edamam.com/ontologies/edamam.owl#Measure_pound",
                    "label": "Pound",
                    "weight": 453.59237
                },
                {
                    "uri": "http://www.edamam.com/ontologies/edamam.owl#Measure_kilogram",
                    "label": "Kilogram",
                    "weight": 1000.0
                }
            ]
        }
    ],
    "_links": {
        "next": {
            "title": "Next page",
            "href": "https://api.edamam.com/api/food-database/v2/parser?session=44&ingr=chocolate&app_id=0ec60e5e&app_key=65ac7a474c9471611bfacdd8984abfc2"
        }
    }
}